---
http_interactions:
- request:
    method: get
    uri: https://api.flickr.com/services/rest?api_key=<FLICKR_API_KEY>&extras=url_l&format=json&method=flickr.photos.search&per_page=1&tags=denver,co
    body:
      encoding: US-ASCII
      string: ''
    headers:
      User-Agent:
      - Faraday v1.3.0
      Accept-Encoding:
      - gzip;q=1.0,deflate;q=0.6,identity;q=0.3
      Accept:
      - "*/*"
  response:
    status:
      code: 200
      message: OK
    headers:
      Content-Type:
      - text/javascript; charset=utf-8
      Content-Length:
      - '273'
      Connection:
      - keep-alive
      Date:
      - Tue, 19 Jan 2021 18:35:13 GMT
      Server:
      - Apache/2.4.46 (Ubuntu)
      X-Content-Type-Options:
      - nosniff
      Vary:
      - Accept-Encoding
      X-Frame-Options:
      - SAMEORIGIN
      X-Cache:
      - Miss from cloudfront
      Via:
      - 1.1 3765ff5ab7256fdbff87302f60a6d801.cloudfront.net (CloudFront)
      X-Amz-Cf-Pop:
      - ORD50-C1
      X-Amz-Cf-Id:
      - r4lB2YzpfoBdRzIK3Ap1G136WETFeCrluW86ojweT14U4bF6U4epHQ==
    body:
      encoding: ASCII-8BIT
      string: jsonFlickrApi({"photos":{"page":1,"pages":73176,"perpage":1,"total":"73176","photo":[{"id":"50838216156","owner":"191772807@N04","secret":"115f08d2ba","server":"65535","farm":66,"title":"20201229_093143.arw.08","ispublic":1,"isfriend":0,"isfamily":0,"url_l":"https:\/\/live.staticflickr.com\/65535\/50838216156_115f08d2ba_b.jpg","height_l":558,"width_l":1024}]},"stat":"ok"})
  recorded_at: Tue, 19 Jan 2021 18:35:13 GMT
recorded_with: VCR 6.0.0
