---
http_interactions:
- request:
    method: get
    uri: https://api.flickr.com/services/rest?api_key=<FLICKR_API_KEY>&extras=url_l&format=json&method=flickr.photos.search&per_page=1&tags=denver,co
    body:
      encoding: US-ASCII
      string: ''
    headers:
      User-Agent:
      - Faraday v1.3.0
      Accept-Encoding:
      - gzip;q=1.0,deflate;q=0.6,identity;q=0.3
      Accept:
      - "*/*"
  response:
    status:
      code: 200
      message: OK
    headers:
      Content-Type:
      - text/javascript; charset=utf-8
      Content-Length:
      - '269'
      Connection:
      - keep-alive
      Date:
      - Sun, 17 Jan 2021 21:49:44 GMT
      Server:
      - Apache/2.4.46 (Ubuntu)
      X-Content-Type-Options:
      - nosniff
      Vary:
      - Accept-Encoding
      X-Frame-Options:
      - SAMEORIGIN
      X-Cache:
      - Miss from cloudfront
      Via:
      - 1.1 b2e880ac67c1fba390623b9fc04bd63a.cloudfront.net (CloudFront)
      X-Amz-Cf-Pop:
      - DEN50-C2
      X-Amz-Cf-Id:
      - ptnhVdg29yrSX3QkjU-zIszk7F2NZQChaAbj3Q4LpvId2QTSIrsVRA==
    body:
      encoding: ASCII-8BIT
      string: jsonFlickrApi({"photos":{"page":1,"pages":72826,"perpage":1,"total":"72826","photo":[{"id":"50837028496","owner":"189196487@N04","secret":"516540d729","server":"65535","farm":66,"title":"Denver
        Police","ispublic":1,"isfriend":0,"isfamily":0,"url_l":"https:\/\/live.staticflickr.com\/65535\/50837028496_516540d729_b.jpg","height_l":576,"width_l":1024}]},"stat":"ok"})
  recorded_at: Sun, 17 Jan 2021 21:49:44 GMT
recorded_with: VCR 6.0.0
