---
http_interactions:
- request:
    method: get
    uri: https://api.flickr.com/services/rest?api_key=<FLICKR_API_KEY>&extras=url_l&format=json&method=flickr.photos.search&per_page=1&tags=denver,co
    body:
      encoding: US-ASCII
      string: ''
    headers:
      User-Agent:
      - Faraday v1.3.0
      Accept-Encoding:
      - gzip;q=1.0,deflate;q=0.6,identity;q=0.3
      Accept:
      - "*/*"
  response:
    status:
      code: 200
      message: OK
    headers:
      Content-Type:
      - text/javascript; charset=utf-8
      Content-Length:
      - '303'
      Connection:
      - keep-alive
      Date:
      - Sun, 17 Jan 2021 20:50:09 GMT
      Server:
      - Apache/2.4.46 (Ubuntu)
      X-Content-Type-Options:
      - nosniff
      Vary:
      - Accept-Encoding
      X-Frame-Options:
      - SAMEORIGIN
      X-Cache:
      - Miss from cloudfront
      Via:
      - 1.1 824a5d9ed02451bcb68b15ae5991dce0.cloudfront.net (CloudFront)
      X-Amz-Cf-Pop:
      - DEN50-C2
      X-Amz-Cf-Id:
      - PkUdnDOGz512KkceE-vVZF52DzV4O6x4StVKEqTe7Zx-Wi0h7Wwz0w==
    body:
      encoding: ASCII-8BIT
      string: jsonFlickrApi({"photos":{"page":1,"pages":74851,"perpage":1,"total":"74851","photo":[{"id":"50839319522","owner":"7630637@N02","secret":"8605c88e22","server":"65535","farm":66,"title":"Colorado
        River Trail | Rocky Mountain National Park Colorado '08","ispublic":1,"isfriend":0,"isfamily":0,"url_l":"https:\/\/live.staticflickr.com\/65535\/50839319522_8605c88e22_b.jpg","height_l":683,"width_l":1024}]},"stat":"ok"})
  recorded_at: Sun, 17 Jan 2021 20:50:09 GMT
recorded_with: VCR 6.0.0
