{"photos":
  {"page": 1,
   "pages": 72826,
   "perpage": 1,
   "total": "72826",
   "photo":
    [{"id": "50837028496",
      "owner": "189196487@N04",
      "secret": "516540d729",
      "server": "65535",
      "farm": 66,
      "title": "Denver Police",
      "ispublic": 1,
      "isfriend": 0,
      "isfamily": 0,
      "url_l": "https//live.staticflickr.com/65535/50837028496_516540d729_b.jpg",
      "height_l": 576,
      "width_l": 1024}]},
 "stat": "ok"}
